^C:\USERS\ACER\DESKTOP\ALLTHINGS\4-1\겜서버\GS_LABPROJECT07_임철진\SIMPLE2DCLIENT\SIMPLE2DCLIENT\2DCLIENT.CPP
C:\USERS\ACER\DESKTOP\ALLTHINGS\4-1\겜서버\GS_LABPROJECT07_임철진\SIMPLE2DCLIENT\SIMPLE2DCLIENT\X64\DEBUG\VC141.PDB
C:\USERS\ACER\DESKTOP\ALLTHINGS\4-1\겜서버\GS_LABPROJECT07_임철진\SIMPLE2DCLIENT\SIMPLE2DCLIENT\X64\DEBUG\VC141.IDB
C:\USERS\ACER\DESKTOP\ALLTHINGS\4-1\겜서버\GS_LABPROJECT07_임철진\SIMPLE2DCLIENT\SIMPLE2DCLIENT\X64\DEBUG\2DCLIENT.OBJ
^D:\PORTPOLIOES\SERVERS\GAMESERVERTERMPROJECT\GS_TERMPROJECT2020\SIMPLE2DCLIENT\SIMPLE2DCLIENT\2DCLIENT.CPP
D:\PORTPOLIOES\SERVERS\GAMESERVERTERMPROJECT\GS_TERMPROJECT2020\SIMPLE2DCLIENT\SIMPLE2DCLIENT\X64\DEBUG\VC141.PDB
D:\PORTPOLIOES\SERVERS\GAMESERVERTERMPROJECT\GS_TERMPROJECT2020\SIMPLE2DCLIENT\SIMPLE2DCLIENT\X64\DEBUG\VC141.IDB
D:\PORTPOLIOES\SERVERS\GAMESERVERTERMPROJECT\GS_TERMPROJECT2020\SIMPLE2DCLIENT\SIMPLE2DCLIENT\X64\DEBUG\2DCLIENT.OBJ
