^D:\PORTPOLIOES\SERVERS\GAMESERVERTERMPROJECT\GS_TERMPROJECT2020\SIMPLE2DCLIENT\SIMPLE2DCLIENT\2DCLIENT.CPP
D:\PORTPOLIOES\SERVERS\GAMESERVERTERMPROJECT\GS_TERMPROJECT2020\SIMPLE2DCLIENT\SIMPLE2DCLIENT\X64\RELEASE\VC141.PDB
D:\PORTPOLIOES\SERVERS\GAMESERVERTERMPROJECT\GS_TERMPROJECT2020\SIMPLE2DCLIENT\SIMPLE2DCLIENT\X64\RELEASE\2DCLIENT.OBJ
