^D:\PORTPOLIOES\SERVERS\GAMESERVERTERMPROJECT\GS_TERMPROJECT2020\IOCPGAMESERVER\IOCPGAMESERVER\LUA53.LIB|D:\PORTPOLIOES\SERVERS\GAMESERVERTERMPROJECT\GS_TERMPROJECT2020\IOCPGAMESERVER\IOCPGAMESERVER\X64\RELEASE\DATABASE.OBJ|D:\PORTPOLIOES\SERVERS\GAMESERVERTERMPROJECT\GS_TERMPROJECT2020\IOCPGAMESERVER\IOCPGAMESERVER\X64\RELEASE\IOCPSERVER.OBJ
D:\PORTPOLIOES\SERVERS\GAMESERVERTERMPROJECT\GS_TERMPROJECT2020\IOCPGAMESERVER\X64\RELEASE\IOCPGAMESERVER.EXE
D:\PORTPOLIOES\SERVERS\GAMESERVERTERMPROJECT\GS_TERMPROJECT2020\IOCPGAMESERVER\X64\RELEASE\IOCPGAMESERVER.PDB
