^D:\PortPolioes\Servers\gameservertermproject\GS_TermProject2020\SimpleStressTest\SimpleStressTest\SimpleStressTest.vcxproj
D:\PortPolioes\Servers\gameservertermproject\GS_TermProject2020\SimpleStressTest\x64\Release\SimpleStressTest.ipdb
D:\PortPolioes\Servers\gameservertermproject\GS_TermProject2020\SimpleStressTest\x64\Release\SimpleStressTest.iobj
^D:\PortPolioes\Servers\gameservertermproject\GS_TermProject2020\SimpleStressTest\SimpleStressTest\SimpleStressTest.vcxproj
D:\PortPolioes\Servers\gameservertermproject\GS_TermProject2020\SimpleStressTest\x64\Release\SimpleStressTest.ipdb
D:\PortPolioes\Servers\gameservertermproject\GS_TermProject2020\SimpleStressTest\x64\Release\SimpleStressTest.iobj
