^C:\USERS\ACER\DESKTOP\ALLTHINGS\4-1\겜서버\GS_LABPROJECT04_임철진\SIMPLESTRESSTEST\SIMPLESTRESSTEST\DRAWMODULE.CPP|C:\USERS\ACER\DESKTOP\ALLTHINGS\4-1\겜서버\GS_LABPROJECT04_임철진\SIMPLESTRESSTEST\SIMPLESTRESSTEST\NETWORKMODULE.CPP
C:\USERS\ACER\DESKTOP\ALLTHINGS\4-1\겜서버\GS_LABPROJECT04_임철진\SIMPLESTRESSTEST\SIMPLESTRESSTEST\X64\DEBUG\VC142.PDB
C:\USERS\ACER\DESKTOP\ALLTHINGS\4-1\겜서버\GS_LABPROJECT04_임철진\SIMPLESTRESSTEST\SIMPLESTRESSTEST\X64\DEBUG\VC142.IDB
C:\USERS\ACER\DESKTOP\ALLTHINGS\4-1\겜서버\GS_LABPROJECT04_임철진\SIMPLESTRESSTEST\SIMPLESTRESSTEST\X64\DEBUG\NETWORKMODULE.OBJ
C:\USERS\ACER\DESKTOP\ALLTHINGS\4-1\겜서버\GS_LABPROJECT04_임철진\SIMPLESTRESSTEST\SIMPLESTRESSTEST\X64\DEBUG\DRAWMODULE.OBJ
^C:\USERS\ACER\DESKTOP\ALLTHINGS\4-1\겜서버\GS_LABPROJECT04_임철진\SIMPLESTRESSTEST\SIMPLESTRESSTEST\DRAWMODULE.CPP
C:\USERS\ACER\DESKTOP\ALLTHINGS\4-1\겜서버\GS_LABPROJECT04_임철진\SIMPLESTRESSTEST\SIMPLESTRESSTEST\X64\DEBUG\VC142.PDB
^C:\USERS\ACER\DESKTOP\ALLTHINGS\4-1\겜서버\GS_LABPROJECT04_임철진\SIMPLESTRESSTEST\SIMPLESTRESSTEST\NETWORKMODULE.CPP
C:\USERS\ACER\DESKTOP\ALLTHINGS\4-1\겜서버\GS_LABPROJECT04_임철진\SIMPLESTRESSTEST\SIMPLESTRESSTEST\X64\DEBUG\VC142.PDB
